{
    "Bear feet": [
      [ "BEAR_FEET" ]
    ],
    "Mole slippers": [
        [ "MOLE_SLIPPERS" ]
    ],
    "Frog slippers": [
        [ "FROG_SLIPPERS" ]
      ],
      "Demon feet": [
        [ "DEMON_FEET" ]
      ],
      "Sandwich lady outfit": [
        [ "SANDWICH_LADY_HAT" ],
        [ "SANDWICH_LADY_TOP" ],
        [ "SANDWICH_LADY_BOTTOM" ]
      ],
      "Monk robes (trimmed)": [
        [ "MONKS_ROBE_TOP_T" ],
        [ "MONKS_ROBE_T" ]
      ],
      "Amulet of defence (t)": [
        [ "AMULET_OF_DEFENCE_T" ]
      ],
      "Jester cape": [
        [ "JESTER_CAPE" ]
      ],
      "Shoulder parrot": [
        [ "SHOULDER_PARROT" ]
      ]
}
