{
  "name": "Creepy Crawly Rewards",
  "variableCurrency": "creepy crawly points",
  "sections": [ { "items": [
    { "id": "ItemId.BARROWS_AMULET_60038", "price": 250 },
    { "id": "ItemId.BLOOD_SHARD", "price": 8500 },
    { "id": "ItemId.ECTOPLASMATOR", "price": 800 },
    { "id": "ItemId.SOUL_CAPE", "price": 5000 },
    { "id": "ItemId.VOID_MELEE_HELM", "price": 600 },
    { "id": "ItemId.VOID_RANGER_HELM", "price": 600 },
    { "id": "ItemId.VOID_MAGE_HELM", "price": 600 },
    { "id": "ItemId.VOID_KNIGHT_TOP", "price": 800 },
    { "id": "ItemId.VOID_KNIGHT_ROBE", "price": 800 },
    { "id": "ItemId.VOID_KNIGHT_GLOVES", "price": 400 },
    {
      "id": "ItemId.WARRIOR_RING_I",
      "price": 1500,
      "costItems": [ [ { "id": "ItemId.WARRIOR_RING",  "amount": 1 } ] ]
    },
    {
      "id": "ItemId.BERSERKER_RING_I",
      "price": 2500,
      "costItems": [ [ { "id": "ItemId.BERSERKER_RING",  "amount": 1 } ] ]
    },
    {
      "id": "ItemId.ARCHERS_RING_I",
      "price": 2500,
      "costItems": [ [ { "id": "ItemId.ARCHERS_RING",  "amount": 1 } ] ]
    },
    {
      "id": "ItemId.SEERS_RING_I",
      "price": 1500,
      "costItems": [ [ { "id": "ItemId.SEERS_RING",  "amount": 1 } ] ]
    },
    {
      "id": "ItemId.TYRANNICAL_RING_I",
      "price": 1500,
      "costItems": [ [ { "id": "ItemId.TYRANNICAL_RING",  "amount": 1 } ] ]
    },
    {
      "id": "ItemId.TREASONOUS_RING_I",
      "price": 1500,
      "costItems": [ [ { "id": "ItemId.TREASONOUS_RING",  "amount": 1 } ] ]
    },
    {
      "id": "ItemId.RING_OF_THE_GODS_I",
      "price": 1500,
      "costItems": [ [ { "id": "ItemId.RING_OF_THE_GODS",  "amount": 1 } ] ]
    },
    {
      "id": "ItemId.RING_OF_SUFFERING_I",
      "price": 2500,
      "costItems": [ [ { "id": "ItemId.RING_OF_SUFFERING",  "amount": 1 } ] ]
    },
    {
      "id": "ItemId.ELITE_VOID_TOP",
      "price": 2000,
      "costItems": [ [ { "id": "ItemId.VOID_KNIGHT_TOP",  "amount": 1 } ] ]
    },
    {
      "id": "ItemId.ELITE_VOID_ROBE",
      "price": 2000,
      "costItems": [ [ { "id": "ItemId.VOID_KNIGHT_ROBE",  "amount": 1 } ] ]
    },
    { "id": "ItemId.HEALER_HAT", "price": 800 },
    { "id": "ItemId.FIGHTER_HAT", "price": 800 },
    { "id": "ItemId.RUNNER_HAT", "price": 800 },
    { "id": "ItemId.RANGER_HAT", "price": 800 },
    { "id": "ItemId.FIGHTER_TORSO", "price": 800 },
    { "id": "ItemId.PENANCE_SKIRT", "price": 800 },
    { "id": "ItemId.SARADOMIN_HALO", "price": 3000 },
    { "id": "ItemId.ZAMORAK_HALO", "price": 3000 },
    { "id": "ItemId.GUTHIX_HALO", "price": 3000 },
    { "id": "ItemId.DECORATIVE_ARMOUR_11898", "price": 800 },
    { "id": "ItemId.DECORATIVE_ARMOUR_11896", "price": 1500 },
    { "id": "ItemId.DECORATIVE_ARMOUR_11897", "price": 1000 },
    { "id": "ItemId.DECORATIVE_ARMOUR_11899", "price": 1500 },
    { "id": "ItemId.DECORATIVE_ARMOUR_11900", "price": 1000 },
    { "id": "ItemId.DECORATIVE_ARMOUR_11901", "price": 1500 },
    { "id": "ItemId.DECORATIVE_HELM", "price": 150 },
    { "id": "ItemId.DECORATIVE_ARMOUR", "price": 300 },
    { "id": "ItemId.DECORATIVE_ARMOUR_4070", "price": 200 },
    { "id": "ItemId.DECORATIVE_ARMOUR_11893", "price": 200 },
    { "id": "ItemId.DECORATIVE_SHIELD", "price": 200 },
    { "id": "ItemId.DECORATIVE_HELM_4506", "price": 1500 },
    { "id": "ItemId.DECORATIVE_ARMOUR_4504", "price": 3000 },
    { "id": "ItemId.DECORATIVE_ARMOUR_4505", "price": 2000 },
    { "id": "ItemId.DECORATIVE_ARMOUR_11894", "price": 2000 },
    { "id": "ItemId.DECORATIVE_SHIELD_4507", "price": 2000 },
    { "id": "ItemId.DECORATIVE_HELM_4511", "price": 8000 },
    { "id": "ItemId.DECORATIVE_ARMOUR_4509", "price": 15000 },
    { "id": "ItemId.DECORATIVE_ARMOUR_4510", "price": 10000 },
    { "id": "ItemId.DECORATIVE_ARMOUR_11895", "price": 10000 },
    { "id": "ItemId.DECORATIVE_SHIELD_4512", "price": 10000 },
    { "id": "ItemId.BEARHEAD", "price": 3000 },
    { "id": "ItemId.DWARVEN_HELMET", "price": 1500 },
    {
      "id": "ItemId.BLACK_MASK_10_I",
      "price": 2000,
      "costItems": [
        [
          { "id": "ItemId.BLACK_MASK_10",  "amount": 1 },
          { "id": "ItemId.BLACK_MASK_9",  "amount": 1 },
          { "id": "ItemId.BLACK_MASK_8",  "amount": 1 },
          { "id": "ItemId.BLACK_MASK_7",  "amount": 1 },
          { "id": "ItemId.BLACK_MASK_6",  "amount": 1 },
          { "id": "ItemId.BLACK_MASK_5",  "amount": 1 },
          { "id": "ItemId.BLACK_MASK_4",  "amount": 1 },
          { "id": "ItemId.BLACK_MASK_3",  "amount": 1 },
          { "id": "ItemId.BLACK_MASK_2",  "amount": 1 },
          { "id": "ItemId.BLACK_MASK_1",  "amount": 1 },
          { "id": "ItemId.BLACK_MASK",  "amount": 1 }
        ]
      ]
    },
    {
      "id": "ItemId.SLAYER_HELMET_I",
      "price": 2000,
      "costItems": [ [ { "id": "ItemId.SLAYER_HELMET",  "amount": 1 } ] ]
    },
    {
      "id": "ItemId.BLACK_SLAYER_HELMET_I",
      "price": 2000,
      "costItems": [ [ { "id": "ItemId.BLACK_SLAYER_HELMET",  "amount": 1 } ] ]
    },
    {
      "id": "ItemId.RED_SLAYER_HELMET_I",
      "price": 2000,
      "costItems": [ [ { "id": "ItemId.RED_SLAYER_HELMET",  "amount": 1 } ] ]
    },
    {
      "id": "ItemId.GREEN_SLAYER_HELMET_I",
      "price": 2000,
      "costItems": [ [ { "id": "ItemId.GREEN_SLAYER_HELMET",  "amount": 1 } ] ]
    },
    {
      "id": "ItemId.PURPLE_SLAYER_HELMET_I",
      "price": 2000,
      "costItems": [ [ { "id": "ItemId.PURPLE_SLAYER_HELMET",  "amount": 1 } ] ]
    },
    {
      "id": "ItemId.TURQUOISE_SLAYER_HELMET_I",
      "price": 2000,
      "costItems": [ [ { "id": "ItemId.TURQUOISE_SLAYER_HELMET",  "amount": 1 } ] ]
    },
    {
      "id": "ItemId.HYDRA_SLAYER_HELMET_I",
      "price": 2000,
      "costItems": [ [ { "id": "ItemId.HYDRA_SLAYER_HELMET",  "amount": 1 } ] ]
    },
    {
      "id": "ItemId.TWISTED_SLAYER_HELMET_I",
      "price": 2000,
      "costItems": [ [ { "id": "ItemId.TWISTED_SLAYER_HELMET",  "amount": 1 } ] ]
    },
    {
      "id": "ItemId.TZTOK_SLAYER_HELMET_I",
      "price": 2000,
      "costItems": [ [ { "id": "ItemId.TZTOK_SLAYER_HELMET",  "amount": 1 } ] ]
    },
    {
      "id": "ItemId.TZKAL_SLAYER_HELMET_I",
      "price": 2000,
      "costItems": [ [ { "id": "ItemId.TZKAL_SLAYER_HELMET",  "amount": 1 } ] ]
    },
    {
      "id": "ItemId.VAMPYRIC_SLAYER_HELMET_I",
      "price": 2000,
      "costItems": [ [ { "id": "ItemId.VAMPYRIC_SLAYER_HELMET",  "amount": 1 } ] ]
    },
    {
      "id": "ItemId.SALVE_AMULET_EI",
      "price": 2000,
      "costItems": [ [ { "id": "ItemId.SALVE_AMULET_E",  "amount": 1 } ] ]
    },
    {
      "id": "ItemId.BLISTERWOOD_FLAIL",
      "price": 1000,
      "costItems": [ [ { "id": "ItemId.IVANDIS_FLAIL",  "amount": 1 } ] ]
    },
    { "id": "ItemId.CLUE_BOX", "price": 1000 },
    { "id": "ItemId.UNDEAD_CHICKEN_60117", "price": 10000 }
  ] } ]
}
