{
  "name": "Hardcore Iron Man Shop",
  "sections": [ { "items": [
    { "id": "ItemId.HARDCORE_IRONMAN_HELM" },
    { "id": "ItemId.HARDCORE_IRONMAN_PLATEBODY" },
    { "id": "ItemId.HARDCORE_IRONMAN_PLATELEGS" }
  ] } ]
}
