{
  "currency": "ItemId.BLOOD_MONEY",
  "name": "Blood Money Shop",
  "sections": [ { "items": [
    {
      "id": "ItemId.ANTIQUE_EMBLEM_TIER_0_32393",
      "price": 0,
      "costItems": [ [ { "id": "ItemId.COINS",  "amount": 50000 } ] ]
    },
    { "id": "ItemId.BOUNTY_TELEPORT_SCROLL", "price": 250000 },
    { "id": "ItemId.BOUNTY_TARGET_TELEPORT", "price": 1000 },
    { "id": "ItemId.BLIGHTED_TELEPORT_SPELL_SACK", "stack": 10, "price": 3000 },
    { "id": "ItemId.VIGGORAS_CHAINMACE_U", "price": 225000 },
    { "id": "ItemId.CRAWS_BOW_U", "price": 300000 },
    { "id": "ItemId.THAMMARONS_SCEPTRE_U", "price": 150000 },
    { "id": "ItemId.AMULET_OF_AVARICE", "price": 50000 },
    { "id": "ItemId.ODIUM_WARD", "price": 50000 },
    { "id": "ItemId.MALEDICTION_WARD", "price": 50000 },
    { "id": "ItemId.SARADOMINS_TEAR", "price": 150000 },
    { "id": "ItemId.TWISTED_ANCESTRAL_COLOUR_KIT", "price": 50000 },
    { "id": "ItemId.VESTAS_LONGSWORD_INACTIVE", "price": 500000 },
    { "id": "ItemId.ECUMENICAL_KEY", "price": 10000 },
    { "id": "ItemId.LAVA_SCALE", "price": 5000, "stack": 10 },
    { "id": "ItemId.REVENANT_ETHER", "price": 250, "stack": 150 },
    { "id": "ItemId.CLUE_BOX", "price": 5000 },
    { "id": "ItemId.VOID_KNIGHT_SET_32289", "price": 200000 },
    { "id": "ItemId.FIGHTER_TORSO", "price": 20000 },
    { "id": "ItemId.FIRE_CAPE", "price": 50000 },
    { "id": "ItemId.INFERNAL_CAPE", "price": 1000000 },
    { "id": "ItemId.IMBUED_SARADOMIN_CAPE", "price": 50000 },
    { "id": "ItemId.IMBUED_GUTHIX_CAPE", "price": 50000 },
    { "id": "ItemId.IMBUED_ZAMORAK_CAPE", "price": 50000 },
    { "id": "ItemId.RANDOM_BARROWS_ITEM_32395", "price": 50000 }
  ] } ]
}
