{
  "name": "Clues Shop",
  "sellExchangeMultiplier": 1.5,
  "sections": [
    {
      "name": "Sets",
      "items": [
        { "id": "ItemId.SPIKED_MANACLES" },
        { "id": "ItemId.PITH_HELMET" },
        { "id": "ItemId.MONKS_ROBE_TOP_T" },
        { "id": "ItemId.MONKS_ROBE_T" },
        { "id": "ItemId.MONKS_ROBE_TOP_G" },
        { "id": "ItemId.MONKS_ROBE_G" },
        { "id": "ItemId.MUSKETEER_HAT" },
        { "id": "ItemId.MUSKETEER_TABARD" },
        { "id": "ItemId.MUSKETEER_PANTS" },
        { "id": "ItemId.BRONZE_FULL_HELM_G" },
        { "id": "ItemId.BRONZE_PLATEBODY_G" },
        { "id": "ItemId.BRONZE_PLATELEGS_G" },
        { "id": "ItemId.BRONZE_PLATESKIRT_G" },
        { "id": "ItemId.BRONZE_KITESHIELD_G" },
        { "id": "ItemId.IRON_FULL_HELM_G" },
        { "id": "ItemId.IRON_PLATEBODY_G" },
        { "id": "ItemId.IRON_PLATELEGS_G" },
        { "id": "ItemId.IRON_PLATESKIRT_G" },
        { "id": "ItemId.IRON_KITESHIELD_G" },
        { "id": "ItemId.STEEL_FULL_HELM_G" },
        { "id": "ItemId.STEEL_PLATEBODY_G" },
        { "id": "ItemId.STEEL_PLATELEGS_G" },
        { "id": "ItemId.STEEL_PLATESKIRT_G" },
        { "id": "ItemId.STEEL_KITESHIELD_G" },
        { "id": "ItemId.BLACK_FULL_HELM_G" },
        { "id": "ItemId.BLACK_PLATEBODY_G" },
        { "id": "ItemId.BLACK_PLATELEGS_G" },
        { "id": "ItemId.BLACK_PLATESKIRT_G" },
        { "id": "ItemId.STEEL_KITESHIELD_G" },
        { "id": "ItemId.RUNE_FULL_HELM_G" },
        { "id": "ItemId.RUNE_PLATEBODY_G" },
        { "id": "ItemId.RUNE_PLATELEGS_G" },
        { "id": "ItemId.RUNE_PLATESKIRT_G" },
        { "id": "ItemId.RUNE_KITESHIELD_G" },
        { "id": "ItemId.BLACK_DHIDE_BODY_G" },
        { "id": "ItemId.BLACK_DHIDE_CHAPS_G" },
        { "id": "ItemId.BLUE_WIZARD_HAT_T" },
        { "id": "ItemId.BLUE_WIZARD_ROBE_T" },
        { "id": "ItemId.BLUE_SKIRT_T" },
        { "id": "ItemId.BLUE_WIZARD_HAT_G" },
        { "id": "ItemId.BLUE_WIZARD_ROBE_G" },
        { "id": "ItemId.BLUE_SKIRT_G" },
        { "id": "ItemId.BLACK_WIZARD_HAT_T" },
        { "id": "ItemId.BLACK_WIZARD_ROBE_T" },
        { "id": "ItemId.BLACK_SKIRT_T" },
        { "id": "ItemId.BLACK_WIZARD_HAT_G" },
        { "id": "ItemId.BLACK_WIZARD_ROBE_G" },
        { "id": "ItemId.BLACK_SKIRT_G" },
        { "id": "ItemId.ENCHANTED_HAT" },
        { "id": "ItemId.ENCHANTED_TOP" },
        { "id": "ItemId.ENCHANTED_ROBE" },
        { "id": "ItemId.SARADOMIN_MITRE" },
        { "id": "ItemId.SARADOMIN_ROBE_TOP" },
        { "id": "ItemId.SARADOMIN_ROBE_LEGS" },
        { "id": "ItemId.SARADOMIN_CLOAK" },
        { "id": "ItemId.SARADOMIN_STOLE" },
        { "id": "ItemId.GUTHIX_MITRE" },
        { "id": "ItemId.GUTHIX_ROBE_TOP" },
        { "id": "ItemId.GUTHIX_ROBE_LEGS" },
        { "id": "ItemId.GUTHIX_CLOAK" },
        { "id": "ItemId.GUTHIX_STOLE" },
        { "id": "ItemId.ZAMORAK_MITRE" },
        { "id": "ItemId.ZAMORAK_ROBE_TOP" },
        { "id": "ItemId.ZAMORAK_ROBE_LEGS" },
        { "id": "ItemId.ZAMORAK_CLOAK" },
        { "id": "ItemId.ZAMORAK_STOLE" },
        { "id": "ItemId.ARMADYL_MITRE" },
        { "id": "ItemId.ARMADYL_ROBE_TOP" },
        { "id": "ItemId.ARMADYL_ROBE_LEGS" },
        { "id": "ItemId.ARMADYL_CLOAK" },
        { "id": "ItemId.ARMADYL_STOLE" },
        { "id": "ItemId.BANDOS_MITRE" },
        { "id": "ItemId.BANDOS_ROBE_TOP" },
        { "id": "ItemId.BANDOS_ROBE_LEGS" },
        { "id": "ItemId.BANDOS_CLOAK" },
        { "id": "ItemId.BANDOS_STOLE" },
        { "id": "ItemId.ANCIENT_MITRE" },
        { "id": "ItemId.ANCIENT_ROBE_TOP" },
        { "id": "ItemId.ANCIENT_ROBE_LEGS" },
        { "id": "ItemId.ANCIENT_CLOAK" },
        { "id": "ItemId.ANCIENT_STOLE" }
      ]
    },
    {
      "name": "Hats",
      "items": [
        { "id": "ItemId.BUCKET_HELM_G" },
        { "id": "ItemId.AFRO" },
        { "id": "ItemId.LEPRECHAUN_HAT" },
        { "id": "ItemId.BLACK_LEPRECHAUN_HAT" },
        { "id": "ItemId.PITH_HELMET" },
        { "id": "ItemId.TOP_HAT" },
        { "id": "ItemId.DEERSTALKER" },
        { "id": "ItemId.BLACKSMITHS_HELM" },
        { "id": "ItemId.URIS_HAT" },
        { "id": "ItemId.BOWL_WIG" },
        { "id": "ItemId.RED_BERET" },
        { "id": "ItemId.BLUE_BERET" },
        { "id": "ItemId.WHITE_BERET" },
        { "id": "ItemId.BLACK_BERET" },
        { "id": "ItemId.NAVY_CAVALIER" },
        { "id": "ItemId.RED_CAVALIER" },
        { "id": "ItemId.TAN_CAVALIER" },
        { "id": "ItemId.WHITE_CAVALIER" },
        { "id": "ItemId.DARK_CAVALIER" },
        { "id": "ItemId.BLACK_CAVALIER" },
        { "id": "ItemId.PIRATES_HAT" },
        { "id": "ItemId.BIG_PIRATE_HAT" },
        { "id": "ItemId.BEANIE" },
        { "id": "ItemId.IMP_MASK" },
        { "id": "ItemId.GOBLIN_MASK" },
        { "id": "ItemId.CAT_MASK" },
        { "id": "ItemId.PENGUIN_MASK" },
        { "id": "ItemId.BLACK_UNICORN_MASK" },
        { "id": "ItemId.WHITE_UNICORN_MASK" },
        { "id": "ItemId.BRONZE_DRAGON_MASK" },
        { "id": "ItemId.GREEN_DRAGON_MASK" },
        { "id": "ItemId.BLUE_DRAGON_MASK" },
        { "id": "ItemId.RED_DRAGON_MASK" },
        { "id": "ItemId.BLACK_DRAGON_MASK" },
        { "id": "ItemId.IRON_DRAGON_MASK" },
        { "id": "ItemId.STEEL_DRAGON_MASK" },
        { "id": "ItemId.MITHRIL_DRAGON_MASK" },
        { "id": "ItemId.ADAMANT_DRAGON_MASK" },
        { "id": "ItemId.RUNE_DRAGON_MASK" },
        { "id": "ItemId.OLD_DEMON_MASK" },
        { "id": "ItemId.LESSER_DEMON_MASK" },
        { "id": "ItemId.GREATER_DEMON_MASK" },
        { "id": "ItemId.BLACK_DEMON_MASK" },
        { "id": "ItemId.JUNGLE_DEMON_MASK" }
      ]
    },
    {
      "name": "Misc",
      "items": [
        { "id": "ItemId.WIZARD_BOOTS" },
        { "id": "ItemId.CLIMBING_BOOTS_G" },
        { "id": "ItemId.STRENGTH_AMULET_T" },
        { "id": "ItemId.AMULET_OF_MAGIC_T" },
        { "id": "ItemId.AMULET_OF_DEFENCE_T" },
        { "id": "ItemId.AMULET_OF_POWER_T" },
        { "id": "ItemId.AMULET_OF_GLORY_T4" },
        { "id": "ItemId.WOODEN_SHIELD_G" }
      ]
    }
  ]
}
