{
  "name": "Slayer",
  "sellExchangeMultiplier": 1.2,
  "sections": [ { "items": [
    { "id": "ItemId.ENCHANTED_GEM" },
    { "id": "ItemId.MIRROR_SHIELD" },
    { "id": "ItemId.LEAF_BLADED_SPEAR" },
    { "id": "ItemId.BROAD_ARROWHEADS", "price": 250 },
    { "id": "ItemId.BROAD_ARROWS" },
    { "id": "ItemId.FACEMASK" },
    { "id": "ItemId.EARMUFFS" },
    { "id": "ItemId.NOSE_PEG" },
    { "id": "ItemId.SLAYERS_STAFF" },
    { "id": "ItemId.SPINY_HELMET" },
    { "id": "ItemId.SLAYER_GLOVES_6720" },
    { "id": "ItemId.LIT_BUG_LANTERN" },
    { "id": "ItemId.INSULATED_BOOTS" },
    { "id": "ItemId.WITCHWOOD_ICON" },
    { "id": "ItemId.UNFINISHED_BROAD_BOLTS" },
    { "id": "ItemId.BOOTS_OF_STONE" },
    { "id": "ItemId.FISHING_EXPLOSIVE", "price": 2500 },
    { "id": "ItemId.EXPEDITIOUS_BRACELET", "price": 10000 },
    { "id": "ItemId.BRACELET_OF_SLAUGHTER", "price": 10000 }
  ] } ]
}
