{
  "name": "Donator Shop",
  "sections": [ { "items": [
    { "id": "ItemId.CRYSTAL_CROWN", "price": 75000000 },
    { "id": "ItemId.CRYSTAL_OF_ITHELL", "price": 10000000 },
    { "id": "ItemId.CRYSTAL_OF_IORWERTH", "price": 10000000 },
    { "id": "ItemId.CRYSTAL_OF_TRAHAEARN", "price": 10000000 },
    { "id": "ItemId.CRYSTAL_OF_CADARN", "price": 10000000 },
    { "id": "ItemId.CRYSTAL_OF_CRWYS", "price": 10000000 },
    { "id": "ItemId.CRYSTAL_OF_MEILYR", "price": 10000000 },
    { "id": "ItemId.CRYSTAL_OF_HEFIN", "price": 10000000 },
    { "id": "ItemId.CRYSTAL_OF_AMLODD", "price": 10000000 }
  ] } ]
}
